…
``` r
movies %>%
  select(budget, logbudget, original_title) %>%
  arrange(budget)
```

    ## # A tibble: 3,102 x 3
    ##    budget logbudget original_title    
    ##     <dbl>     <dbl> <chr>             
    ##  1      1      0    Modern Times      
    ##  2      4      1.39 A Farewell to Arms
    ##  3      7      1.95 Split Second      
    ##  4      7      1.95 Bran Nue Dae      
    ##  5      8      2.08 The Prophecy      
    ##  6     10      2.30 Nurse 3-D         
    ##  7     11      2.40 F.I.S.T.          
    ##  8     25      3.22 Angela's Ashes    
    ##  9     28      3.33 The 51st State    
    ## 10    218      5.38 Tarnation         
    ## # … with 3,092 more rows
