…
    ## # A tibble: 10 x 2
    ##    title                                          budget
    ##    <chr>                                           <dbl>
    ##  1 Pirates of the Caribbean: On Stranger Tides 380000000
    ##  2 Pirates of the Caribbean: At World's End    300000000
    ##  3 Avengers: Age of Ultron                     280000000
    ##  4 Superman Returns                            270000000
    ##  5 John Carter                                 260000000
    ##  6 Tangled                                     260000000
    ##  7 Spider-Man 3                                258000000
    ##  8 The Lone Ranger                             255000000
    ##  9 The Dark Knight Rises                       250000000
    ## 10 Harry Potter and the Half-Blood Prince      250000000

    ## # A tibble: 3,697 x 1
    ##    production_companies                                                    
    ##    <chr>                                                                   
    ##  1 "[{\"name\": \"Ingenious Film Partners\", \"id\": 289}, {\"name\": \"Tw…
    ##  2 "[{\"name\": \"Walt Disney Pictures\", \"id\": 2}, {\"name\": \"Jerry B…
    ##  3 "[{\"name\": \"Columbia Pictures\", \"id\": 5}, {\"name\": \"Danjaq\", …
    ##  4 "[{\"name\": \"Legendary Pictures\", \"id\": 923}, {\"name\": \"Warner …
    ##  5 "[{\"name\": \"Walt Disney Pictures\", \"id\": 2}]"                     
    ##  6 "[{\"name\": \"Columbia Pictures\", \"id\": 5}, {\"name\": \"Laura Zisk…
    ##  7 "[{\"name\": \"Walt Disney Pictures\", \"id\": 2}, {\"name\": \"Walt Di…
    ##  8 "[{\"name\": \"Marvel Studios\", \"id\": 420}, {\"name\": \"Prime Focus…
    ##  9 "[{\"name\": \"Warner Bros.\", \"id\": 6194}, {\"name\": \"Heyday Films…
    ## 10 "[{\"name\": \"DC Comics\", \"id\": 429}, {\"name\": \"Atlas Entertainm…
    ## # … with 3,687 more rows
…
