…
## # A tibble: 10 x 2
##    title                                          budget
##    <chr>                                           <dbl>
##  1 Pirates of the Caribbean: On Stranger Tides 380000000
##  2 Pirates of the Caribbean: At World's End    300000000
##  3 Avengers: Age of Ultron                     280000000
##  4 Superman Returns                            270000000
##  5 John Carter                                 260000000
##  6 Tangled                                     260000000
##  7 Spider-Man 3                                258000000
##  8 The Lone Ranger                             255000000
##  9 The Dark Knight Rises                       250000000
## 10 Harry Potter and the Half-Blood Prince      250000000

## # A tibble: 2,516 x 1
##    production_companies                                                    
##    <chr>                                                                   
##  1 "[{\"name\": \"Ingenious Film Partners\", \"id\": 289}, {\"name\": \"Tw…
##  2 "[{\"name\": \"Walt Disney Pictures\", \"id\": 2}, {\"name\": \"Jerry B…
##  3 "[{\"name\": \"Columbia Pictures\", \"id\": 5}, {\"name\": \"Danjaq\", …
##  4 "[{\"name\": \"Legendary Pictures\", \"id\": 923}, {\"name\": \"Warner …
##  5 "[{\"name\": \"Walt Disney Pictures\", \"id\": 2}]"                     
##  6 "[{\"name\": \"Columbia Pictures\", \"id\": 5}, {\"name\": \"Laura Zisk…
##  7 "[{\"name\": \"Walt Disney Pictures\", \"id\": 2}, {\"name\": \"Walt Di…
##  8 "[{\"name\": \"Marvel Studios\", \"id\": 420}, {\"name\": \"Prime Focus…
##  9 "[{\"name\": \"Warner Bros.\", \"id\": 6194}, {\"name\": \"Heyday Films…
## 10 "[{\"name\": \"DC Comics\", \"id\": 429}, {\"name\": \"Atlas Entertainm…
## # … with 2,506 more rows

The results were actually quite surprising; around half of the films on the list received significant negative press coverage and failed to meet revenue expectations for movies of their caliber. At this point, we became intrigued – what factors did these high budget movies lack that might have improved their box office performance?

## # A tibble: 2,516 x 1
##    production_companies                                                    
##    <chr>                                                                   
##  1 "[{\"name\": \"Ingenious Film Partners\", \"id\": 289}, {\"name\": \"Tw…
##  2 "[{\"name\": \"Walt Disney Pictures\", \"id\": 2}, {\"name\": \"Jerry B…
##  3 "[{\"name\": \"Columbia Pictures\", \"id\": 5}, {\"name\": \"Danjaq\", …
##  4 "[{\"name\": \"Legendary Pictures\", \"id\": 923}, {\"name\": \"Warner …
##  5 "[{\"name\": \"Walt Disney Pictures\", \"id\": 2}]"                     
##  6 "[{\"name\": \"Columbia Pictures\", \"id\": 5}, {\"name\": \"Laura Zisk…
##  7 "[{\"name\": \"Walt Disney Pictures\", \"id\": 2}, {\"name\": \"Walt Di…
##  8 "[{\"name\": \"Marvel Studios\", \"id\": 420}, {\"name\": \"Prime Focus…
##  9 "[{\"name\": \"Warner Bros.\", \"id\": 6194}, {\"name\": \"Heyday Films…
## 10 "[{\"name\": \"DC Comics\", \"id\": 429}, {\"name\": \"Atlas Entertainm…
## # … with 2,506 more rows
…
##                    2.482e+00                     1.653e+00  
##      major_productioncopixar   major_productioncouniversal  
##                    5.552e+00                     1.349e+00  
##     major_productioncowarner                    tag_length  
##                           NA                    -3.972e-03  
##                   englishyes                       runtime  
##                    6.922e-01                     3.145e-02  
##                    actionyes                     horroryes  
##                   -6.916e-01                     1.946e+00  
##                 few_wordsyes            budget:if_majoryes  
##                    9.441e-02                     2.390e-08  
##      likely_sequelyes:budget  
##                    3.145e-08

## # A tibble: 22 x 2
##    term                              estimate
##    <chr>                                <dbl>
##  1 (Intercept)                   2.92        
##  2 holiday_releaseyes           -1.14        
##  3 likely_sequelyes             -1.65        
##  4 budget                       -0.0000000648
##  5 if_majoryes                  -0.504       
##  6 major_productionco20thc       1.94        
##  7 major_productioncocolumbia   -0.686       
##  8 major_productioncodisney      1.54        
##  9 major_productioncodreamworks  0.427       
## 10 major_productioncolionsgate  -1.16        
## # … with 12 more rows
…
